Application,Service,TCP Default ports,UDP Default ports
Microsoft Exchange 2000 Server,"pop, imap, smtp, web, ldap","110, 143, 25, 80, 389",
Microsoft Exchange Server 2000,"pop, imap, smtp, web, ldap","110, 143, 25, 80, 389",
Microsoft Project Server 2010,applications,"32843, 32844",----
Microsoft Project Server 2011,applications,"32843, 32844",----
Microsoft SharePoint Server 2007,web,80,----
Microsoft Sharepoint Server 2007,web,80,----
Microsoft SharePoint Server 2010,web,80,----
Microsoft Sharepoint Server 2010,web,80,----
Microsoft SharePoint Server 2013,web,80,----
Microsoft Sharepoint Server 2013,web,80,----
Microsoft SharePoint Server 2016,web,80,----
Microsoft SharePoint Server 2019,web,80,----
Microsoft SharePoint Services 2.0,web,80,----
Microsoft SharePoint Services 3.0,web,80,----
RealNetworks Helix Server,"web, rtsp, mms","80, 554, 1755",----
IBM WebSphere Application Server Network Deployment 7.0,applications,9043,
IBM WebSphere Application Server Network Deployment 8.0,applications,9043,
IBM WebSphere Application Server Network Deployment 8.5,applications,9043,
IBM WebSphere Application Server Network Deployment 9.0,applications,9043,
Apache CouchDB,couchdb,"5984, 6984",
IceWarp Mail Server,Daytime,13,
ALFTP,ftp,21,
Cerberus FTP Server,ftp,21,
Cacti,ftp,21,
Microsoft FTP Service 7.0,ftp,21,
Microsoft FTP Service 7.5,ftp,21,
Microsoft Forefront Security for Exchange Server,http,8080,
Microsoft Forefront Threat Management Gateway Client,http,8080,
Microsoft Media Encoder,HTTP,8080,
Microsoft Office Web Apps Server 2010,"HTTP, https","80, 443",
Microsoft Office Web Apps Server 2013,"HTTP, https","80, 443",
Microsoft Active Directory Federation Services,https,443,
Active Directory,"ldap, ldaps","389, 636, 10389, 10636","389, 636, 10389, 10636"
Active Directory Application Mode,"ldap, ldaps","389, 636, 10389, 10636","389, 636, 10389, 10636"
Active Directory Lightweight Directory Service,"ldap, ldaps","389, 636, 10389, 10636","389, 636, 10389, 10636"
Windows Media Server 4.1,mms,1755,1755
Adobe Flash Media Server,"RTMP/E , RTMFP, RTMTP,  HTTP, RTMP, RTMPS","1935, 80, 8134, 1111, 443",1935
SMTP,smtp,25,
Axigen Free Mail Server,"smtp, smtps, msa","25, 465, 587",
IBM Informix Dynamic Server,"sqlexec, sqlexec-ssl","9088, 9089","9088, 9089"
GoodTech SSH Server,ssh,22,
Cascade DataHub,web,80,
Microsoft Internet Information Server (IIS),web,80,
Microsoft Internet Information Server (IIS) 5.0,web,80,
Microsoft Internet Information Server (IIS) 5.1,web,80,
Microsoft Internet Information Server (IIS) 6.0,web,80,
Microsoft Internet Information Server (IIS) 7.0,web,80,
Microsoft Internet Information Server (IIS) 7.5,web,80,
Microsoft Internet Information Server 5.0,web,80,
Microsoft Internet Information Server 5.1,web,80,
Microsoft Internet Information Server 6.0,web,80,
Microsoft Internet Information Server 7.0,web,80,
Microsoft Internet Information Server 7.5,web,80,
Microsoft Internet Information Server 8.0,web,80,
Microsoft Internet Information Server 8.5,web,80,
Microsoft Internet Information Services 7.0,web,80,
Microsoft Internet Information Services 7.5,web,80,
Microsoft Internet Information Services 8.0,web,80,
Microsoft Internet Information Services 8.5,web,80,
Jenkins LTS,"web, https","443, 80, 8080, 8443",
Apache,web,"80, 443",
Apache HTTP Server,web,"80, 443",
Comodo Antivirus,web,"80, 443",
Atlassian Confluence Server,web,"80, 443, 8090",
Apache Tomcat,web,"8080, 80",
Adobe Robohelp Server,"web, https","8080, 80, 443",
Adobe Robohelp Server 8,"web, https","8080, 80, 443",
Adobe Robohelp Server 9,"web, https","8080, 80, 443",
Azure DevOps Server 2019,web,"8080, 8081",
Azure DevOps Server 2019 Update 1,web,"8080, 8081",
Azure DevOps Server 2020,web,"8080, 8081",
IBM OpenAdmin Tool,"applications, web","9080, 80, 443",
IBM Rational Asset Manager,"applications, web","9080, 80, 443",
FlashFXP,ftp,21,
OpenSSH,ssh,22,
Microsoft Report Viewer,web,80,
Microsoft Forefront Unified Access Gateway 2010,https,443,
Novell eDirectory,applications,524,
McAfee VirusScan Enterprise,mssql,1433,
Microsoft SQL Server 2000 Analysis Services,msolap4,2383,
Firebird,gdsdb,3050,
MariaDB,mysql,3306,
MariaDB 10.0,mysql,3306,
MariaDB 10.1,mysql,3306,
MariaDB 10.2,mysql,3306,
MariaDB 10.3,mysql,3306,
MariaDB 10.4,mysql,3306,
MariaDB 10.5,mysql,3306,
MariaDB 5.2,mysql,3306,
MariaDB 5.3,mysql,3306,
MariaDB 5.5,mysql,3306,
MariaDB 5.x,mysql,3306,
MySQL Server 4.1,mysql,3306,
MySQL Server 5.0,mysql,3306,
MySQL Server 5.1,mysql,3306,
MySQL Server 5.5,mysql,3306,
MySQL Server 5.6,mysql,3306,
MySQL Server 5.7,mysql,3306,
MySQL Server 6.0,mysql,3306,
MySQL Server 8.0,mysql,3306,
Mysql Cluster,mysql,3306,
Remote Desktop Client,rdp,3389,
Microsoft Windows Remote Desktop Connection 6.1,rdp,3389,
Microsoft Windows Remote Desktop Connection 7.0,rdp,3389,
Microsoft Windows Remote Desktop Connection 7.1,rdp,3389,
Microsoft Windows Remote Desktop Connection 8.0,rdp,3389,
Microsoft Windows Remote Desktop Connection 8.1,rdp,3389,
Windows Remote Desktop Connection 5.0,rdp,3389,
Windows Remote Desktop Connection 5.1,rdp,3389,
Windows Remote Desktop Connection 5.2,rdp,3389,
Windows Remote Desktop Connection 6.0,rdp,3389,
Windows Remote Desktop Connection 6.1,rdp,3389,
Windows Remote Desktop Connection 7.0,rdp,3389,
Firefly Media Server,applications,3689,
Apache Subversion,applications,3690,3690
PostgreSQL,applications,5432,
BlueStacks,mscrm,5555,
RealVNC,vnc,5900,
Oracle JRockit,applications,7091,
CA ARCserve D2D,symantec,8014,
Microsoft Visual Studio Team Foundation Server,http,8080,
Microsoft Visual Studio Team Foundation Server 2010,http,8080,
Microsoft Visual Studio Team Foundation Server 2012,http,8080,
Microsoft Visual Studio Team Foundation Server 2013,http,8080,
Microsoft Visual Studio Team Foundation Server 2015,http,8080,
Microsoft Visual Studio Team Foundation Server 2015 Update 4.2,http,8080,
Microsoft Visual Studio Team Foundation Server 2017,http,8080,
Microsoft Visual Studio Team Foundation Server 2017 Update 3.1,http,8080,
Microsoft Visual Studio Team Foundation Server 2018,http,8080,
Microsoft Visual Studio Team Foundation Server 2018 Update 1.1,http,8080,
Microsoft Visual Studio Team Foundation Server 2018 Update 1.2,http,8080,
Microsoft Visual Studio Team Foundation Server 2018 Update 2,http,8080,
Microsoft Visual Studio Team Foundation Server 2018 Update 3,http,8080,
Microsoft Visual Studio Team Foundation Server 2018 Update 3.1,http,8080,
Microsoft Visual Studio Team Foundation Server 2018 Update 3.2,http,8080,
Microsoft FAST Search Server 2010 for SharePoint,applications,13000,
Fabulatech USB over Remote Desktop (Server),applications,33000,
Microsoft Exchange Server,"pop, imap, smtp, web, ldap","110, 143, 25, 80, 389",
Microsoft Exchange Server 2003,"pop, imap, smtp, web, ldap","110, 143, 25, 80, 389",
Microsoft Exchange Server 2007,"pop, imap, smtp, web, ldap","110, 143, 25, 80, 389",
Microsoft Exchange Server 2010,"pop, imap, smtp, web, ldap","110, 143, 25, 80, 389",
Microsoft Exchange Server 2013,"pop, imap, smtp, web, ldap","110, 143, 25, 80, 389",
Microsoft Exchange Server 2016,"pop, imap, smtp, web, ldap","110, 143, 25, 80, 389",
Microsoft Exchange Server 2019,"pop, imap, smtp, web, ldap","110, 143, 25, 80, 389",
Microsoft SQL Server,"mssql, mssql-broker, locsrv, mssql","1433 , 4022 , 135 , 1434",1434
Microsoft SQL Server 2000,"mssql, mssql-broker, locsrv, mssql","1433 , 4022 , 135 , 1434",1434
Microsoft SQL Server 2005,"mssql, mssql-broker, locsrv, mssql","1433 , 4022 , 135 , 1434",1434
Microsoft SQL Server 2008,"mssql, mssql-broker, locsrv, mssql","1433 , 4022 , 135 , 1434",1434
Microsoft SQL Server 2008 R2,"mssql, mssql-broker, locsrv, mssql","1433 , 4022 , 135 , 1434",1434
Microsoft SQL Server 2012,"mssql, mssql-broker, locsrv, mssql","1433 , 4022 , 135 , 1434",1434
Microsoft SQL Server 2014,"mssql, mssql-broker, locsrv, mssql","1433 , 4022 , 135 , 1434",1434
Microsoft SQL Server 2016,"mssql, mssql-broker, locsrv, mssql","1433 , 4022 , 135 , 1434",1434
Microsoft SQL Server 2017,"mssql, mssql-broker, locsrv, mssql","1433 , 4022 , 135 , 1434",1434
Microsoft SQL Server 2019,"mssql, mssql-broker, locsrv, mssql","1433 , 4022 , 135 , 1434",1434
SQL Server Management Studio,"mssql, mssql-broker, locsrv, mssql","1433 , 4022 , 135 , 1434",1434
SQL Server Management Studio 17,"mssql, mssql-broker, locsrv, mssql","1433 , 4022 , 135 , 1434",1434
SQL Server Management Studio 18,"mssql, mssql-broker, locsrv, mssql","1433 , 4022 , 135 , 1434",1434
IBM Tivoli Storage Manager,applications,"1500 , 10000",
Ipswitch WhatsUp Gold,"ftp, web, https","20, 80, 443, ","162, 514, 9644"
IBM Rational ClearQuest,applications,"27000, 27001",
IBM Tivoli Directory Server,"ldap, ldaps","389 , 636",
Microsoft Groove Server 2007,groove,2492,
Microsoft Groove Server 2010,groove,2492,
IBM DB2,applications,"50000, 60000, 20000",
BigAntSoft BigAnt IM Message Server,applications,"6660, 6661",6662
EMC NetWorker,"applications, lgtomapper","7937, 7938",
IBM HTTP Server,"HTTP, https","80, 443",
Microsoft Silverlight,"HTTP, https","80, 443",
ePO-MVT,"HTTP, https","80, 443, 8081, 8443",
Bamboo CI server,"wiki, applications","8085, 54663",
Couchbase Server,"couchbase, applications","8091, 18091 , 11210, 11207",
Microsoft BizTalk Server 2002,qsm-proxy,1164,
Microsoft BizTalk Server 2004,qsm-proxy,1164,
Microsoft Exchange Server MAPI Client and Collaboration Data Objects 1.2.1,telnet,23,
Microsoft Host Integration Server 2000,telnet,23,
Microsoft Host Integration Server 2000 Administrator Client,telnet,23,
Microsoft Host Integration Server 2004,telnet,23,
Microsoft Host Integration Server 2004 Client,telnet,23,
Microsoft Host Integration Server 2006,telnet,23,
Microsoft Host Integration Server 2009,telnet,23,
Microsoft Host Integration Server 2010,telnet,23,
Microsoft Hyper-V Server,applications,27000,
Microsoft Lync Server 2010,sip,5061,
Microsoft Lync Server 2013,sip,5061,
Microsoft Office Forms Server 2007,applications,"56737, 56738",
Microsoft SQL Server 2000 Desktop Engine (WMSDE),mssql,1433,
Microsoft SQL Server 2000 Reporting Services,mssql,1434,
Microsoft SQL Server Management Studio Express,mssql,1434,
Oracle Database Server,oracle,1521,
Safe Software FME Server,http,8080,
ScadaPro Server,applications,11234,
SolarWinds TFTP Server,tftp,,69